{
    "employees": [
      {
        "id": 1,
        "name": "Anjith Garapati",
        "employeeId": "VL001",
        "city": "Pragathi Nagar",
        "status": "Active"
      },
      {
        "id": 2,
        "name": "Anugna U",
        "employeeId": "VL002",
        "city": "Kondapur",
        "status": "Eligible"
      },
      {
        "id": 3,
        "name": "HimaBindu R",
        "employeeId": "VL003",
        "city": "Kukatpally",
        "status": "Deactive"
      },
      {
        "id": 4,
        "name": "Hemanth Chennavaram",
        "employeeId": "VL004",
        "city": "Manikonda",
        "status": "Not Eligible "
      }
    ]
  }